…
You can show only the statistics for each response option using `cq_resp_stats`:

``` r
cq_resp_stats(df)
#> # A tibble: 50 x 10
#>             id label score count pct_tot pt_bis      t     p pv_avg pv_sd
#>          <chr> <chr> <dbl> <dbl>   <dbl>  <dbl>  <dbl> <dbl>  <dbl> <dbl>
#>  1 item:1 (q1)     1     0    91    6.17  -0.19  -7.32 0.000  -1.39  1.91
#>  2 item:1 (q1)     2     0   113    7.66  -0.04  -1.48 0.140  -0.23  1.75
#>  3 item:1 (q1)     3     1  1104   74.85   0.40  16.86 0.000   1.20  1.91
#>  4 item:1 (q1)     4     0    41    2.78  -0.04  -1.55 0.121  -0.29  1.35
#>  5 item:1 (q1)     5     0    16    1.08  -0.05  -2.10 0.036  -0.47  1.95
#>  6 item:1 (q1)     9     0   110    7.46  -0.41 -17.10 0.000  -2.74  1.26
#>  7 item:2 (q2)     1     0    75    5.08  -0.19  -7.46 0.000  -1.57  1.72
#>  8 item:2 (q2)     2     0    10    0.68  -0.06  -2.22 0.027  -1.23  1.53
#>  9 item:2 (q2)     3     0    17    1.15  -0.07  -2.62 0.009  -0.63  1.41
#> 10 item:2 (q2)     4     1  1194   80.95   0.54  24.70 0.000   1.19  1.86
#> # ... with 40 more rows
```
…
